{
  "project_info": {
    "project_number": "373287173418",
    "firebase_url": "https://waste-manager-88bde.firebaseio.com",
    "project_id": "waste-manager-88bde",
    "storage_bucket": "waste-manager-88bde.appspot.com"
  },
  "client": [
    {
      "client_info": {
        "mobilesdk_app_id": "1:373287173418:android:36eef94dbb20d6f7",
        "android_client_info": {
          "package_name": "com.magesho.wastemanager"
        }
      },
      "oauth_client": [
        {
          "client_id": "373287173418-sd947blteiavkbvj28oibbumfi56o09u.apps.googleusercontent.com",
          "client_type": 3
        },
        {
          "client_id": "373287173418-sd947blteiavkbvj28oibbumfi56o09u.apps.googleusercontent.com",
          "client_type": 3
        }
      ],
      "api_key": [
        {
          "current_key": "AIzaSyA7fdzCWR2pt0uW3BnBQb-IZG_IL9sFhvI"
        }
      ],
      "services": {
        "analytics_service": {
          "status": 1
        },
        "appinvite_service": {
          "status": 1,
          "other_platform_oauth_client": []
        },
        "ads_service": {
          "status": 2
        }
      }
    }
  ],
  "configuration_version": "1"
}